testbench.vcd
$date
	Mon Apr 14 21:28:24 2025
$end
$version
	Icarus Verilog
$end
$timescale
	1ps
$end
$scope module i2c_master_tb $end
$var wire 1 ! interupt $end
$var wire 1 " sda $end
$var wire 1 # scl $end
$var wire 1 $ led3 $end
$var wire 1 % led2 $end
$var wire 1 & led1 $end
$var reg 1 ' clk $end
$var reg 1 ( reset $end
$var reg 1 ) start $end
$scope module dut $end
$var wire 1 ' clk $end
$var wire 1 ! interupt $end
$var wire 1 & led1 $end
$var wire 1 % led2 $end
$var wire 1 $ led3 $end
$var wire 1 ( reset $end
$var wire 1 ) start $end
$var wire 1 * sda_dir $end
$var wire 1 " sda $end
$var wire 1 # scl $end
$var wire 6 + num_samples [5:0] $end
$var wire 769 , fifo_data [768:0] $end
$var wire 1 - debug $end
$var wire 1 . data_ready $end
$var reg 1 / c $end
$var reg 26 0 counter [25:0] $end
$scope module i2c_master $end
$var wire 1 ' clk $end
$var wire 1 1 i_bit $end
$var wire 1 ( reset $end
$var wire 1 # scl $end
$var wire 1 ) start $end
$var wire 1 * sda_dir $end
$var wire 1 " sda $end
$var parameter 6 2 POWER_UP $end
$var parameter 6 3 READ_RD_PTR $end
$var parameter 6 4 READ_WR_PTR $end
$var parameter 6 5 REC_ACK_FIFO_PTR $end
$var parameter 6 6 REC_ACK_RD_FIFO $end
$var parameter 6 7 REC_ACK_RD_PTR $end
$var parameter 6 8 REC_ACK_RD_RD $end
$var parameter 6 9 REC_ACK_RD_WR $end
$var parameter 6 : REC_ACK_WR_FIFO $end
$var parameter 6 ; REC_ACK_WR_PTR $end
$var parameter 6 < REC_ACK_WR_RD $end
$var parameter 6 = REC_ACK_WR_WR $end
$var parameter 6 > REC_NACK $end
$var parameter 6 ? REPEATED_START1 $end
$var parameter 6 @ REPEATED_START2 $end
$var parameter 6 A REPEATED_START3 $end
$var parameter 6 B REPEATED_START4 $end
$var parameter 6 C SEND_ACK_RD_PTR $end
$var parameter 6 D SEND_ACK_WR_PTR $end
$var parameter 6 E SEND_ADDRESS_RD_FIFO $end
$var parameter 6 F SEND_ADDRESS_RD_RD $end
$var parameter 6 G SEND_ADDRESS_RD_WR $end
$var parameter 6 H SEND_ADDRESS_WR_FIFO $end
$var parameter 6 I SEND_ADDRESS_WR_RD $end
$var parameter 6 J SEND_ADDRESS_WR_WR $end
$var parameter 6 K SEND_AM $end
$var parameter 6 L SEND_FIFO_PTR $end
$var parameter 6 M SEND_NACK $end
$var parameter 6 N SEND_RD_PTR $end
$var parameter 6 O SEND_WR_PTR $end
$var parameter 6 P START $end
$var parameter 6 Q START_FIFO_LOOP $end
$var parameter 6 R START_RD_PTR $end
$var parameter 6 S STOP $end
$var parameter 8 T rd_ptr $end
$var parameter 8 U sensor_address_read $end
$var parameter 8 V sensor_address_write $end
$var parameter 8 W wr_ptr $end
$var reg 1 X clk_reg $end
$var reg 12 Y count [11:0] $end
$var reg 4 Z counter [3:0] $end
$var reg 1 . data_ready $end
$var reg 1 - debug $end
$var reg 769 [ fifo_data [768:0] $end
$var reg 8 \ fifo_rd_ptr [7:0] $end
$var reg 8 ] fifo_wr_ptr [7:0] $end
$var reg 6 ^ num_samples [5:0] $end
$var reg 1 _ o_bit $end
$var reg 24 ` r_data [23:0] $end
$var reg 6 a state_reg [5:0] $end
$var reg 6 b t_num_samples [5:0] $end
$var reg 12 c t_timing [11:0] $end
$var reg 12 d timing [11:0] $end
$var integer 32 e i [31:0] $end
$var integer 32 f j [31:0] $end
$upscope $end
$upscope $end
$upscope $end
$enddefinitions $end
$comment Show the parameter values. $end
$dumpall
b100 W
b10101110 V
b10101111 U
b110 T
b100001 S
b1011 R
b11101 Q
b1 P
b100 O
b1110 N
b11111 M
b11000 L
b11110 K
b10 J
b1100 I
b10110 H
b111 G
b10001 F
b11011 E
b1010 D
b10100 C
b11010 B
b10101 A
b10000 @
b110 ?
b100000 >
b11 =
b1101 <
b101 ;
b10111 :
b1000 9
b10010 8
b1111 7
b11100 6
b11001 5
b1001 4
b10011 3
b0 2
$end
#0
$dumpvars
bx f
bx e
b0 d
b0 c
b0 b
b0 a
b0 `
1_
bx ^
b0 ]
b0 \
bx [
b0 Z
b0 Y
0X
11
b0 0
0/
x.
x-
bx ,
bx +
1*
1)
0(
0'
x&
x%
0$
0#
1"
z!
$end
#1000
b1 Z
b1 a
1%
1-
b1 Y
1'
#2000
0'
#3000
b10 Y
b10 Z
1'
#4000
0'
#5000
b11 Z
b11 Y
1'
#6000
0'
#7000
b100 Y
b100 Z
1'
#8000
0'
#9000
b101 Z
b101 Y
1'
#10000
0'
#11000
b110 Y
b110 Z
1'
#12000
0'
#13000
b111 Z
b111 Y
1'
#14000
0'
#15000
b1000 Y
b1000 Z
1'
#16000
0'
#17000
b1001 Z
b1001 Y
1'
#18000
0'
#19000
b1 0
b1010 Y
1#
1X
b0 Z
1'
#20000
0'
#21000
b1 Z
b1011 Y
1'
#22000
0'
#23000
b1100 Y
b10 Z
1'
#24000
0'
#25000
b11 Z
b1101 Y
1'
#26000
0'
#27000
b1110 Y
b100 Z
1'
#28000
0'
#29000
01
0"
b101 Z
0&
0.
b0 ,
b0 [
0_
b1111 Y
1'
#30000
0'
#31000
b10000 Y
b110 Z
1'
#32000
0'
#33000
b111 Z
b10001 Y
1'
#34000
0'
#35000
b10010 Y
b1000 Z
1'
#36000
0'
#37000
b1001 Z
b10011 Y
1'
#38000
0'
#39000
b10100 Y
0#
0X
b0 Z
1'
#40000
0'
#41000
b1 Z
b10101 Y
1'
#42000
0'
#43000
b10110 Y
b10 Z
1'
#44000
0'
#45000
b11 Z
b10111 Y
1'
#46000
0'
#47000
b111 e
b11000 c
b11000 d
b10 a
b11000 Y
b100 Z
1'
#48000
0'
#49000
11
1"
b101 Z
1_
b11001 Y
b101100 c
b110 e
1'
#50000
0'
#51000
b11010 Y
b110 Z
1'
#52000
0'
#53000
b111 Z
b11011 Y
1'
#54000
0'
#55000
b11100 Y
b1000 Z
1'
#56000
0'
#57000
b1001 Z
b11101 Y
1'
#58000
0'
#59000
b10 0
b11110 Y
1#
1X
b0 Z
1'
#60000
0'
#61000
b1 Z
b11111 Y
1'
#62000
0'
#63000
b100000 Y
b10 Z
1'
#64000
0'
#65000
b11 Z
b100001 Y
1'
#66000
0'
#67000
b100010 Y
b100 Z
1'
#68000
0'
#69000
b101 Z
b100011 Y
1'
#70000
0'
#71000
b100100 Y
b110 Z
1'
#72000
0'
#73000
b111 Z
b100101 Y
1'
#74000
0'
#75000
b100110 Y
b1000 Z
1'
#76000
0'
#77000
b1001 Z
b100111 Y
1'
#78000
0'
#79000
b101000 Y
0#
0X
b0 Z
1'
#80000
0'
#81000
b1 Z
b101001 Y
1'
#82000
0'
#83000
b101010 Y
b10 Z
1'
#84000
0'
#85000
b11 Z
b101011 Y
1'
#86000
0'
#87000
b101100 Y
b100 Z
1'
#88000
0'
#89000
01
0"
b101 Z
0_
b101101 Y
b1000000 c
b101 e
1'
#90000
0'
#91000
b101110 Y
b110 Z
1'
#92000
0'
#93000
b111 Z
b101111 Y
1'
#94000
0'
#95000
b110000 Y
b1000 Z
1'
#96000
0'
#97000
b1001 Z
b110001 Y
1'
#98000
0'
#99000
b11 0
b110010 Y
1#
1X
b0 Z
1'
#100000
0'
#101000
b1 Z
b110011 Y
1'
#102000
0'
#103000
b110100 Y
b10 Z
1'
#104000
0'
#105000
b11 Z
b110101 Y
1'
#106000
0'
#107000
b110110 Y
b100 Z
1'
#108000
0'
#109000
b101 Z
b110111 Y
1'
#110000
0'
#111000
b111000 Y
b110 Z
1'
#112000
0'
#113000
b111 Z
b111001 Y
1'
#114000
0'
#115000
b111010 Y
b1000 Z
1'
#116000
0'
#117000
b1001 Z
b111011 Y
1'
#118000
0'
#119000
b111100 Y
0#
0X
b0 Z
1'
#120000
0'
#121000
b1 Z
b111101 Y
1'
#122000
0'
#123000
b111110 Y
b10 Z
1'
#124000
0'
#125000
b11 Z
b111111 Y
1'
#126000
0'
#127000
b1000000 Y
b100 Z
1'
#128000
0'
#129000
11
1"
b101 Z
1_
b1000001 Y
b1010100 c
b100 e
1'
#130000
0'
#131000
b1000010 Y
b110 Z
1'
#132000
0'
#133000
b111 Z
b1000011 Y
1'
#134000
0'
#135000
b1000100 Y
b1000 Z
1'
#136000
0'
#137000
b1001 Z
b1000101 Y
1'
#138000
0'
#139000
b100 0
b1000110 Y
1#
1X
b0 Z
1'
#140000
0'
#141000
b1 Z
b1000111 Y
1'
#142000
0'
#143000
b1001000 Y
b10 Z
1'
#144000
0'
#145000
b11 Z
b1001001 Y
1'
#146000
0'
#147000
b1001010 Y
b100 Z
1'
#148000
0'
#149000
b101 Z
b1001011 Y
1'
#150000
0'
#151000
b1001100 Y
b110 Z
1'
#152000
0'
#153000
b111 Z
b1001101 Y
1'
#154000
0'
#155000
b1001110 Y
b1000 Z
1'
#156000
0'
#157000
b1001 Z
b1001111 Y
1'
#158000
0'
#159000
b1010000 Y
0#
0X
b0 Z
1'
#160000
0'
#161000
b1 Z
b1010001 Y
1'
#162000
0'
#163000
b1010010 Y
b10 Z
1'
#164000
0'
#165000
b11 Z
b1010011 Y
1'
#166000
0'
#167000
b1010100 Y
b100 Z
1'
#168000
0'
#169000
01
0"
b101 Z
0_
b1010101 Y
b1101000 c
b11 e
1'
#170000
0'
#171000
b1010110 Y
b110 Z
1'
#172000
0'
#173000
b111 Z
b1010111 Y
1'
#174000
0'
#175000
b1011000 Y
b1000 Z
1'
#176000
0'
#177000
b1001 Z
b1011001 Y
1'
#178000
0'
#179000
b101 0
b1011010 Y
1#
1X
b0 Z
1'
#180000
0'
#181000
b1 Z
b1011011 Y
1'
#182000
0'
#183000
b1011100 Y
b10 Z
1'
#184000
0'
#185000
b11 Z
b1011101 Y
1'
#186000
0'
#187000
b1011110 Y
b100 Z
1'
#188000
0'
#189000
b101 Z
b1011111 Y
1'
#190000
0'
#191000
b1100000 Y
b110 Z
1'
#192000
0'
#193000
b111 Z
b1100001 Y
1'
#194000
0'
#195000
b1100010 Y
b1000 Z
1'
#196000
0'
#197000
b1001 Z
b1100011 Y
1'
#198000
0'
#199000
b1100100 Y
0#
0X
b0 Z
1'
#200000
0'
#201000
b1 Z
b1100101 Y
1'
#202000
0'
#203000
b1100110 Y
b10 Z
1'
#204000
0'
#205000
b11 Z
b1100111 Y
1'
#206000
0'
#207000
b1101000 Y
b100 Z
1'
#208000
0'
#209000
11
1"
b101 Z
1_
b1101001 Y
b1111100 c
b10 e
1'
#210000
0'
#211000
b1101010 Y
b110 Z
1'
#212000
0'
#213000
b111 Z
b1101011 Y
1'
#214000
0'
#215000
b1101100 Y
b1000 Z
1'
#216000
0'
#217000
b1001 Z
b1101101 Y
1'
#218000
0'
#219000
b110 0
b1101110 Y
1#
1X
b0 Z
1'
#220000
0'
#221000
b1 Z
b1101111 Y
1'
#222000
0'
#223000
b1110000 Y
b10 Z
1'
#224000
0'
#225000
b11 Z
b1110001 Y
1'
#226000
0'
#227000
b1110010 Y
b100 Z
1'
#228000
0'
#229000
b101 Z
b1110011 Y
1'
#230000
0'
#231000
b1110100 Y
b110 Z
1'
#232000
0'
#233000
b111 Z
b1110101 Y
1'
#234000
0'
#235000
b1110110 Y
b1000 Z
1'
#236000
0'
#237000
b1001 Z
b1110111 Y
1'
#238000
0'
#239000
b1111000 Y
0#
0X
b0 Z
1'
#240000
0'
#241000
b1 Z
b1111001 Y
1'
#242000
0'
#243000
b1111010 Y
b10 Z
1'
#244000
0'
#245000
b11 Z
b1111011 Y
1'
#246000
0'
#247000
b1111100 Y
b100 Z
1'
#248000
0'
#249000
b101 Z
b1111101 Y
b10010000 c
b1 e
1'
#250000
0'
#251000
b1111110 Y
b110 Z
1'
#252000
0'
#253000
b111 Z
b1111111 Y
1'
#254000
0'
#255000
b10000000 Y
b1000 Z
1'
#256000
0'
#257000
b1001 Z
b10000001 Y
1'
#258000
0'
#259000
b111 0
b10000010 Y
1#
1X
b0 Z
1'
#260000
0'
#261000
b1 Z
b10000011 Y
1'
#262000
0'
#263000
b10000100 Y
b10 Z
1'
#264000
0'
#265000
b11 Z
b10000101 Y
1'
#266000
0'
#267000
b10000110 Y
b100 Z
1'
#268000
0'
#269000
b101 Z
b10000111 Y
1'
#270000
0'
#271000
b10001000 Y
b110 Z
1'
#272000
0'
#273000
b111 Z
b10001001 Y
1'
#274000
0'
#275000
b10001010 Y
b1000 Z
1'
#276000
0'
#277000
b1001 Z
b10001011 Y
1'
#278000
0'
#279000
b10001100 Y
0#
0X
b0 Z
1'
#280000
0'
#281000
b1 Z
b10001101 Y
1'
#282000
0'
#283000
b10001110 Y
b10 Z
1'
#284000
0'
#285000
b11 Z
b10001111 Y
1'
#286000
0'
#287000
b10010000 Y
b100 Z
1'
#288000
0'
#289000
b101 Z
b10010001 Y
b10100100 c
b0 e
1'
#290000
0'
#291000
b10010010 Y
b110 Z
1'
#292000
0'
#293000
b111 Z
b10010011 Y
1'
#294000
0'
#295000
b10010100 Y
b1000 Z
1'
#296000
0'
#297000
b1001 Z
b10010101 Y
1'
#298000
0'
#299000
b1000 0
b10010110 Y
1#
1X
b0 Z
1'
#300000
0'
#301000
b1 Z
b10010111 Y
1'
#302000
0'
#303000
b10011000 Y
b10 Z
1'
#304000
0'
#305000
b11 Z
b10011001 Y
1'
#306000
0'
#307000
b10011010 Y
b100 Z
1'
#308000
0'
#309000
b101 Z
b10011011 Y
1'
#310000
0'
#311000
b10011100 Y
b110 Z
1'
#312000
0'
#313000
b111 Z
b10011101 Y
1'
#314000
0'
#315000
b10011110 Y
b1000 Z
1'
#316000
0'
#317000
b1001 Z
b10011111 Y
1'
#318000
0'
#319000
b10100000 Y
0#
0X
b0 Z
1'
#320000
0'
#321000
b1 Z
b10100001 Y
1'
#322000
0'
#323000
b10100010 Y
b10 Z
1'
#324000
0'
#325000
b11 Z
b10100011 Y
1'
#326000
0'
#327000
b10100100 Y
b100 Z
1'
#328000
0'
#329000
01
0"
b101 Z
0_
b10100101 Y
b10111000 c
b11111111111111111111111111111111 e
1'
#330000
0'
#331000
b10100110 Y
b110 Z
1'
#332000
0'
#333000
b111 Z
b10100111 Y
1'
#334000
0'
#335000
b10101000 Y
b1000 Z
1'
#336000
0'
#337000
b1001 Z
b10101001 Y
1'
#338000
0'
#339000
b1001 0
b10101010 Y
1#
1X
b0 Z
1'
#340000
0'
#341000
b1 Z
b10101011 Y
1'
#342000
0'
#343000
b10101100 Y
b10 Z
1'
#344000
0'
#345000
b11 Z
b10101101 Y
1'
#346000
0'
#347000
b10101110 Y
b100 Z
1'
#348000
0'
#349000
b101 Z
b10101111 Y
1'
#350000
0'
#351000
b10110000 Y
b110 Z
1'
#352000
0'
#353000
b111 Z
b10110001 Y
1'
#354000
0'
#355000
b10110010 Y
b1000 Z
1'
#356000
0'
#357000
b1001 Z
b10110011 Y
1'
#358000
0'
#359000
b10110100 Y
0#
0X
b0 Z
1'
#360000
0'
#361000
b1 Z
b10110101 Y
1'
#362000
0'
#363000
b10110110 Y
b10 Z
1'
#364000
0'
#365000
b11 Z
b10110111 Y
1'
#366000
0'
#367000
b10111000 Y
b100 Z
1'
#368000
0'
#369000
z1
z"
0*
b101 Z
b11 a
b10111001 Y
1'
#370000
0'
#371000
b11001100 c
b11001100 d
b10111010 Y
b110 Z
b111 e
1'
#372000
0'
#373000
b111 Z
b10111011 Y
1'
#374000
0'
#375000
b10111100 Y
b1000 Z
1'
#376000
0'
#377000
b1001 Z
b10111101 Y
1'
#378000
0'
#379000
b1010 0
b10111110 Y
1#
1X
b0 Z
1'
#380000
0'
#381000
b1 Z
b10111111 Y
1'
#382000
0'
#383000
b11000000 Y
b10 Z
1'
#384000
0'
#385000
b11 Z
b11000001 Y
1'
#386000
0'
#387000
b11000010 Y
b100 Z
1'
#388000
0'
#389000
b101 Z
b11000011 Y
1'
#390000
0'
#391000
b11000100 Y
b110 Z
1'
#392000
0'
#393000
b111 Z
b11000101 Y
1'
#394000
0'
#395000
b11000110 Y
b1000 Z
1'
#396000
0'
#397000
b1001 Z
b11000111 Y
1'
#398000
0'
#399000
b11001000 Y
0#
0X
b0 Z
1'
#400000
0'
#401000
b1 Z
b11001001 Y
1'
#402000
0'
#403000
b11001010 Y
b10 Z
1'
#404000
0'
#405000
b11 Z
b11001011 Y
1'
#406000
0'
#407000
01
0"
1*
b100 a
b11001100 Y
b100 Z
1'
#408000
0'
#409000
b101 Z
b11001101 Y
b11100000 c
b110 e
1'
#410000
0'
#411000
b11001110 Y
b110 Z
1'
#412000
0'
#413000
b111 Z
b11001111 Y
1'
#414000
0'
#415000
b11010000 Y
b1000 Z
1'
#416000
0'
#417000
b1001 Z
b11010001 Y
1'
#418000
0'
#419000
b1011 0
b11010010 Y
1#
1X
b0 Z
1'
#420000
0'
#421000
b1 Z
b11010011 Y
1'
#422000
0'
#423000
b11010100 Y
b10 Z
1'
#424000
0'
#425000
b11 Z
b11010101 Y
1'
#426000
0'
#427000
b11010110 Y
b100 Z
1'
#428000
0'
#429000
b101 Z
b11010111 Y
1'
#430000
0'
#431000
b11011000 Y
b110 Z
1'
#432000
0'
#433000
b111 Z
b11011001 Y
1'
#434000
0'
#435000
b11011010 Y
b1000 Z
1'
#436000
0'
#437000
b1001 Z
b11011011 Y
1'
#438000
0'
#439000
b11011100 Y
0#
0X
b0 Z
1'
#440000
0'
#441000
b1 Z
b11011101 Y
1'
#442000
0'
#443000
b11011110 Y
b10 Z
1'
#444000
0'
#445000
b11 Z
b11011111 Y
1'
#446000
0'
#447000
b11100000 Y
b100 Z
1'
#448000
0'
#449000
b101 Z
b11100001 Y
b11110100 c
b101 e
1'
#450000
0'
#451000
b11100010 Y
b110 Z
1'
#452000
0'
#453000
b111 Z
b11100011 Y
1'
#454000
0'
#455000
b11100100 Y
b1000 Z
1'
#456000
0'
#457000
b1001 Z
b11100101 Y
1'
#458000
0'
#459000
b1100 0
b11100110 Y
1#
1X
b0 Z
1'
#460000
0'
#461000
b1 Z
b11100111 Y
1'
#462000
0'
#463000
b11101000 Y
b10 Z
1'
#464000
0'
#465000
b11 Z
b11101001 Y
1'
#466000
0'
#467000
b11101010 Y
b100 Z
1'
#468000
0'
#469000
b101 Z
b11101011 Y
1'
#470000
0'
#471000
b11101100 Y
b110 Z
1'
#472000
0'
#473000
b111 Z
b11101101 Y
1'
#474000
0'
#475000
b11101110 Y
b1000 Z
1'
#476000
0'
#477000
b1001 Z
b11101111 Y
1'
#478000
0'
#479000
b11110000 Y
0#
0X
b0 Z
1'
#480000
0'
#481000
b1 Z
b11110001 Y
1'
#482000
0'
#483000
b11110010 Y
b10 Z
1'
#484000
0'
#485000
b11 Z
b11110011 Y
1'
#486000
0'
#487000
b11110100 Y
b100 Z
1'
#488000
0'
#489000
b101 Z
b11110101 Y
b100001000 c
b100 e
1'
#490000
0'
#491000
b11110110 Y
b110 Z
1'
#492000
0'
#493000
b111 Z
b11110111 Y
1'
#494000
0'
#495000
b11111000 Y
b1000 Z
1'
#496000
0'
#497000
b1001 Z
b11111001 Y
1'
#498000
0'
#499000
b1101 0
b11111010 Y
1#
1X
b0 Z
1'
#500000
0'
#501000
b1 Z
b11111011 Y
1'
#502000
0'
#503000
b11111100 Y
b10 Z
1'
#504000
0'
#505000
b11 Z
b11111101 Y
1'
#506000
0'
#507000
b11111110 Y
b100 Z
1'
#508000
0'
#509000
b101 Z
b11111111 Y
1'
#510000
0'
#511000
b100000000 Y
b110 Z
1'
#512000
0'
#513000
b111 Z
b100000001 Y
1'
#514000
0'
#515000
b100000010 Y
b1000 Z
1'
#516000
0'
#517000
b1001 Z
b100000011 Y
1'
#518000
0'
#519000
b100000100 Y
0#
0X
b0 Z
1'
#520000
0'
#521000
b1 Z
b100000101 Y
1'
#522000
0'
#523000
b100000110 Y
b10 Z
1'
#524000
0'
#525000
b11 Z
b100000111 Y
1'
#526000
0'
#527000
b100001000 Y
b100 Z
1'
#528000
0'
#529000
b101 Z
b100001001 Y
b100011100 c
b11 e
1'
#530000
0'
#531000
b100001010 Y
b110 Z
1'
#532000
0'
#533000
b111 Z
b100001011 Y
1'
#534000
0'
#535000
b100001100 Y
b1000 Z
1'
#536000
0'
#537000
b1001 Z
b100001101 Y
1'
#538000
0'
#539000
b1110 0
b100001110 Y
1#
1X
b0 Z
1'
#540000
0'
#541000
b1 Z
b100001111 Y
1'
#542000
0'
#543000
b100010000 Y
b10 Z
1'
#544000
0'
#545000
b11 Z
b100010001 Y
1'
#546000
0'
#547000
b100010010 Y
b100 Z
1'
#548000
0'
#549000
b101 Z
b100010011 Y
1'
#550000
0'
#551000
b100010100 Y
b110 Z
1'
#552000
0'
#553000
b111 Z
b100010101 Y
1'
#554000
0'
#555000
b100010110 Y
b1000 Z
1'
#556000
0'
#557000
b1001 Z
b100010111 Y
1'
#558000
0'
#559000
b100011000 Y
0#
0X
b0 Z
1'
#560000
0'
#561000
b1 Z
b100011001 Y
1'
#562000
0'
#563000
b100011010 Y
b10 Z
1'
#564000
0'
#565000
b11 Z
b100011011 Y
1'
#566000
0'
#567000
b100011100 Y
b100 Z
1'
#568000
0'
#569000
b101 Z
b100011101 Y
b100110000 c
b10 e
1'
#570000
0'
#571000
b100011110 Y
b110 Z
1'
#572000
0'
#573000
b111 Z
b100011111 Y
1'
#574000
0'
#575000
b100100000 Y
b1000 Z
1'
#576000
0'
#577000
b1001 Z
b100100001 Y
1'
#578000
0'
#579000
b1111 0
b100100010 Y
1#
1X
b0 Z
1'
#580000
0'
#581000
b1 Z
b100100011 Y
1'
#582000
0'
#583000
b100100100 Y
b10 Z
1'
#584000
0'
#585000
b11 Z
b100100101 Y
1'
#586000
0'
#587000
b100100110 Y
b100 Z
1'
#588000
0'
#589000
b101 Z
b100100111 Y
1'
#590000
0'
#591000
b100101000 Y
b110 Z
1'
#592000
0'
#593000
b111 Z
b100101001 Y
1'
#594000
0'
#595000
b100101010 Y
b1000 Z
1'
#596000
0'
#597000
b1001 Z
b100101011 Y
1'
#598000
0'
#599000
b100101100 Y
0#
0X
b0 Z
1'
#600000
0'
#601000
b1 Z
b100101101 Y
1'
#602000
0'
#603000
b100101110 Y
b10 Z
1'
#604000
0'
#605000
b11 Z
b100101111 Y
1'
#606000
0'
#607000
b100110000 Y
b100 Z
1'
#608000
0'
#609000
11
1"
b101 Z
1_
b100110001 Y
b101000100 c
b1 e
1'
#610000
0'
#611000
b100110010 Y
b110 Z
1'
#612000
0'
#613000
b111 Z
b100110011 Y
1'
#614000
0'
#615000
b100110100 Y
b1000 Z
1'
#616000
0'
#617000
b1001 Z
b100110101 Y
1'
#618000
0'
#619000
b10000 0
b100110110 Y
1#
1X
b0 Z
1'
#620000
0'
#621000
b1 Z
b100110111 Y
1'
#622000
0'
#623000
b100111000 Y
b10 Z
1'
#624000
0'
#625000
b11 Z
b100111001 Y
1'
#626000
0'
#627000
b100111010 Y
b100 Z
1'
#628000
0'
#629000
b101 Z
b100111011 Y
1'
#630000
0'
#631000
b100111100 Y
b110 Z
1'
#632000
0'
#633000
b111 Z
b100111101 Y
1'
#634000
0'
#635000
b100111110 Y
b1000 Z
1'
#636000
0'
#637000
b1001 Z
b100111111 Y
1'
#638000
0'
#639000
b101000000 Y
0#
0X
b0 Z
1'
#640000
0'
#641000
b1 Z
b101000001 Y
1'
#642000
0'
#643000
b101000010 Y
b10 Z
1'
#644000
0'
#645000
b11 Z
b101000011 Y
1'
#646000
0'
#647000
b101000100 Y
b100 Z
1'
#648000
0'
#649000
01
0"
b101 Z
0_
b101000101 Y
b101011000 c
b0 e
1'
#650000
0'
#651000
b101000110 Y
b110 Z
1'
#652000
0'
#653000
b111 Z
b101000111 Y
1'
#654000
0'
#655000
b101001000 Y
b1000 Z
1'
#656000
0'
#657000
b1001 Z
b101001001 Y
1'
#658000
0'
#659000
b10001 0
b101001010 Y
1#
1X
b0 Z
1'
#660000
0'
#661000
b1 Z
b101001011 Y
1'
#662000
0'
#663000
b101001100 Y
b10 Z
1'
#664000
0'
#665000
b11 Z
b101001101 Y
1'
#666000
0'
#667000
b101001110 Y
b100 Z
1'
#668000
0'
#669000
b101 Z
b101001111 Y
1'
#670000
0'
#671000
b101010000 Y
b110 Z
1'
#672000
0'
#673000
b111 Z
b101010001 Y
1'
#674000
0'
#675000
b101010010 Y
b1000 Z
1'
#676000
0'
#677000
b1001 Z
b101010011 Y
1'
#678000
0'
#679000
b101010100 Y
0#
0X
b0 Z
1'
#680000
0'
#681000
b1 Z
b101010101 Y
1'
#682000
0'
#683000
b101010110 Y
b10 Z
1'
#684000
0'
#685000
b11 Z
b101010111 Y
1'
#686000
0'
#687000
b101011000 Y
b100 Z
1'
#688000
0'
#689000
b101 Z
b101011001 Y
b101101100 c
b11111111111111111111111111111111 e
1'
#690000
0'
#691000
b101011010 Y
b110 Z
1'
#692000
0'
#693000
b111 Z
b101011011 Y
1'
#694000
0'
#695000
b101011100 Y
b1000 Z
1'
#696000
0'
#697000
b1001 Z
b101011101 Y
1'
#698000
0'
#699000
b10010 0
b101011110 Y
1#
1X
b0 Z
1'
#700000
0'
#701000
b1 Z
b101011111 Y
1'
#702000
0'
#703000
b101100000 Y
b10 Z
1'
#704000
0'
#705000
b11 Z
b101100001 Y
1'
#706000
0'
#707000
b101100010 Y
b100 Z
1'
#708000
0'
#709000
b101 Z
b101100011 Y
1'
#710000
0'
#711000
b101100100 Y
b110 Z
1'
#712000
0'
#713000
b111 Z
b101100101 Y
1'
#714000
0'
#715000
b101100110 Y
b1000 Z
1'
#716000
0'
#717000
b1001 Z
b101100111 Y
1'
#718000
0'
#719000
b101101000 Y
0#
0X
b0 Z
1'
#720000
0'
#721000
b1 Z
b101101001 Y
1'
#722000
0'
#723000
b101101010 Y
b10 Z
1'
#724000
0'
#725000
b11 Z
b101101011 Y
1'
#726000
0'
#727000
b101101100 Y
b100 Z
1'
#728000
0'
#729000
z1
z"
0*
b101 Z
b101 a
b101101101 Y
1'
#730000
0'
#731000
b101101110 Y
b110 Z
1'
#732000
0'
#733000
b111 Z
b101101111 Y
1'
#734000
0'
#735000
b101110000 Y
b1000 Z
1'
#736000
0'
#737000
b1001 Z
b101110001 Y
1'
#738000
0'
#739000
b10011 0
b101110010 Y
1#
1X
b0 Z
1'
#740000
0'
#741000
b1 Z
b101110011 Y
1'
#742000
0'
#743000
b101110100 Y
b10 Z
1'
#744000
0'
#745000
b11 Z
b101110101 Y
1'
#746000
0'
#747000
b101110110 Y
b100 Z
1'
#748000
0'
#749000
b101 Z
b101110111 Y
1'
#750000
0'
#751000
b101111000 Y
b110 Z
1'
#752000
0'
#753000
b111 Z
b101111001 Y
1'
#754000
0'
#755000
b101111010 Y
b1000 Z
1'
#756000
0'
#757000
b1001 Z
b101111011 Y
1'
#758000
0'
#759000
b101111100 Y
0#
0X
b0 Z
1'
#760000
0'
#761000
b1 Z
b101111101 Y
1'
#762000
0'
#763000
b101111110 Y
b10 Z
1'
#764000
0'
#765000
b11 Z
b101111111 Y
1'
#766000
0'
#767000
b110000000 Y
b100 Z
1'
#768000
0'
#769000
11
1"
1*
b101 Z
b110 a
1_
b110000001 Y
1'
#770000
0'
#771000
b110000010 Y
b110 Z
1'
#772000
0'
#773000
b111 Z
b110000011 Y
1'
#774000
0'
#775000
b110000100 Y
b1000 Z
1'
#776000
0'
#777000
b1001 Z
b110000101 Y
1'
#778000
0'
#779000
b10100 0
b110000110 Y
1#
1X
b0 Z
1'
#780000
0'
#781000
b1 Z
b110000111 Y
1'
#782000
0'
#783000
b110001000 Y
b10 Z
1'
#784000
0'
#785000
b11 Z
b110001001 Y
1'
#786000
0'
#787000
b110001010 Y
b100 Z
1'
#788000
0'
#789000
01
0"
b101 Z
0_
b110001011 Y
1'
#790000
0'
#791000
b110001100 Y
b110 Z
1'
#792000
0'
#793000
b111 Z
b110001101 Y
1'
#794000
0'
#795000
b110001110 Y
b1000 Z
1'
#796000
0'
#797000
b1001 Z
b110001111 Y
1'
#798000
0'
#799000
b110010000 Y
0#
0X
b0 Z
1'
#800000
0'
#801000
b1 Z
b110010001 Y
1'
#802000
0'
#803000
b110010010 Y
b10 Z
1'
#804000
0'
#805000
b11 Z
b110010011 Y
1'
#806000
0'
#807000
b110010100 c
b110010100 d
b111 e
b111 a
b110010100 Y
b100 Z
1'
#808000
0'
#809000
11
1"
b101 Z
1_
b110010101 Y
b110101000 c
b110 e
1'
#810000
0'
#811000
b110010110 Y
b110 Z
1'
#812000
0'
#813000
b111 Z
b110010111 Y
1'
#814000
0'
#815000
b110011000 Y
b1000 Z
1'
#816000
0'
#817000
b1001 Z
b110011001 Y
1'
#818000
0'
#819000
b10101 0
b110011010 Y
1#
1X
b0 Z
1'
#820000
0'
#821000
b1 Z
b110011011 Y
1'
#822000
0'
#823000
b110011100 Y
b10 Z
1'
#824000
0'
#825000
b11 Z
b110011101 Y
1'
#826000
0'
#827000
b110011110 Y
b100 Z
1'
#828000
0'
#829000
b101 Z
b110011111 Y
1'
#830000
0'
#831000
b110100000 Y
b110 Z
1'
#832000
0'
#833000
b111 Z
b110100001 Y
1'
#834000
0'
#835000
b110100010 Y
b1000 Z
1'
#836000
0'
#837000
b1001 Z
b110100011 Y
1'
#838000
0'
#839000
b110100100 Y
0#
0X
b0 Z
1'
#840000
0'
#841000
b1 Z
b110100101 Y
1'
#842000
0'
#843000
b110100110 Y
b10 Z
1'
#844000
0'
#845000
b11 Z
b110100111 Y
1'
#846000
0'
#847000
b110101000 Y
b100 Z
1'
#848000
0'
#849000
01
0"
b101 Z
0_
b110101001 Y
b110111100 c
b101 e
1'
#850000
0'
#851000
b110101010 Y
b110 Z
1'
#852000
0'
#853000
b111 Z
b110101011 Y
1'
